{
  "name": "RPG-CoreTests",
  "rootNamespace": "",
  "references": [
    "Zenject",
    "rStatUtility.TestFramework",
    "rStar.RPG-Core",
    "rStarUtility.Util.Runtime"
  ],
  "includePlatforms": [
    "Editor"
  ],
  "excludePlatforms": [],
  "allowUnsafeCode": false,
  "overrideReferences": true,
  "precompiledReferences": [
    "nunit.framework.dll",
    "FluentAssertions.dll",
    "NSubstitute.dll"
  ],
  "autoReferenced": false,
  "defineConstraints": [
    "UNITY_INCLUDE_TESTS"
  ],
  "versionDefines": [],
  "noEngineReferences": false
}